…
(please accept all cookies and agree to the terms and conditions.)

## Contents

`tidyGDPR` contains the recitals, chapters, and citations from the GDPR
regulations as individual `tibble`s. The recitals

``` r
GDPR_recitals
#> General Data Protection Regulation ( GDPR 2016/679 )
#> Dated: 27/04/2016 , Updated: 27/04/2016 
#> # A tibble: 173 x 3
#>    number text                                                       type 
#>  * <chr>  <chr>                                                      <chr>
#>  1 1      The protection of natural persons in relation to the proc… reci…
#>  2 2      The principles of, and rules on the protection of natural… reci…
#>  3 3      Directive 95/46/EC of the European Parliament and of the … reci…
#>  4 4      The processing of personal data should be designed to ser… reci…
#>  5 5      The economic and social integration resulting from the fu… reci…
#>  6 6      Rapid technological developments and globalisation have b… reci…
#>  7 7      Those developments require a strong and more coherent dat… reci…
#>  8 8      Where this Regulation provides for specifications or rest… reci…
#>  9 9      The objectives and principles of Directive 95/46/EC remai… reci…
#> 10 10     In order to ensure a consistent and high level of protect… reci…
#> # ... with 163 more rows
```
…
and the citations

``` r
GDPR_citations
#> General Data Protection Regulation ( GDPR 2016/679 )
#> Dated: 27/04/2016 , Updated: 27/04/2016 
#> # A tibble: 21 x 3
#>    number text                                                       type 
#>    <chr>  <chr>                                                      <chr>
#>  1 1      OJ C 229, 31.7.2012, p. 90.                                cita…
#>  2 2      OJ C 391, 18.12.2012, p. 127.                              cita…
#>  3 3      Position of the European Parliament of 12 March 2014 (not… cita…
#>  4 4      Directive 95/46/EC of the European Parliament and of the … cita…
#>  5 5      Commission Recommendation of 6 May 2003 concerning the de… cita…
#>  6 6      Regulation (EC) No 45/2001 of the European Parliament and… cita…
#>  7 7      Directive (EU) 2016/680 of the European Parliament and of… cita…
#>  8 8      Directive 2000/31/EC of the European Parliament and of th… cita…
#>  9 9      Directive 2011/24/EU of the European Parliament and of th… cita…
#> 10 10     Council Directive 93/13/EEC of 5 April 1993 on unfair ter… cita…
#> # ... with 11 more rows
```
…
